127.0.0.1 - - [09/May/2017:12:26:37 +0530] "GET / HTTP/1.1" 404 951
0:0:0:0:0:0:0:1 - - [09/May/2017:12:26:38 +0530] "GET /spr/WEB-INF/jsp/addproduct.jsp HTTP/1.1" 404 949
0:0:0:0:0:0:0:1 - - [09/May/2017:12:26:38 +0530] "GET /favicon.ico HTTP/1.1" 404 973
0:0:0:0:0:0:0:1 - - [09/May/2017:12:27:36 +0530] "GET //mvc/addproduct HTTP/1.1" 404 981
0:0:0:0:0:0:0:1 - - [09/May/2017:12:27:48 +0530] "GET //mvc/addproduct HTTP/1.1" 404 981
0:0:0:0:0:0:0:1 - - [09/May/2017:12:28:31 +0530] "GET //spr/mvc/addproduct HTTP/1.1" 404 949
0:0:0:0:0:0:0:1 - - [09/May/2017:12:29:28 +0530] "GET //spr/mvc/addnewproduct HTTP/1.1" 404 949
0:0:0:0:0:0:0:1 - - [09/May/2017:12:29:49 +0530] "GET //spr/mvc/hello/addnewproduct HTTP/1.1" 200 576
0:0:0:0:0:0:0:1 - - [09/May/2017:12:33:01 +0530] "GET /spr/WEB-INF/jsp/addproduct.jsp HTTP/1.1" 404 949
0:0:0:0:0:0:0:1 - - [09/May/2017:12:33:16 +0530] "GET /spr/hello/addproduct HTTP/1.1" 404 991
0:0:0:0:0:0:0:1 - - [09/May/2017:12:33:23 +0530] "GET /spr/hello/addnewproduct HTTP/1.1" 404 997
0:0:0:0:0:0:0:1 - - [09/May/2017:12:33:33 +0530] "GET /spr/mvc/hello/addnewproduct HTTP/1.1" 200 575
0:0:0:0:0:0:0:1 - - [09/May/2017:12:33:40 +0530] "POST /spr/mvc/hello/addnewproduct HTTP/1.1" 302 -
0:0:0:0:0:0:0:1 - - [09/May/2017:12:33:40 +0530] "GET /spr/mvc/hello/hello HTTP/1.1" 404 949
